{
  "photos": {
    "page": 1,
    "pages": 39955,
    "perpage": 5,
    "total": "199773",
    "photo": [
      {
        "id": "40107995774",
        "owner": "152508136@N06",
        "secret": "7ed5905c16",
        "server": "4778",
        "farm": 5,
        "title": "ğŸ±ğŸ¶ğŸ¶ ğŸ’–",
        "ispublic": 1,
        "isfriend": 0,
        "isfamily": 0
      },
      {
        "id": "26945278248",
        "owner": "128512949@N07",
        "secret": "9d9fc82c4c",
        "server": "4777",
        "farm": 5,
        "title": "@Cgshapes , @Ella , @Fashionnatic , @Serendipity , @Armonia",
        "ispublic": 1,
        "isfriend": 0,
        "isfamily": 0
      },
      {
        "id": "40772774262",
        "owner": "52361229@N06",
        "secret": "24942a6a29",
        "server": "4771",
        "farm": 5,
        "title": "These Guys starting 3 days early.....disclaimer: no pets or dogs were hurt or got intoxicated during the making of this image.",
        "ispublic": 1,
        "isfriend": 0,
        "isfamily": 0
      },
      {
        "id": "38999884280",
        "owner": "162254693@N02",
        "secret": "0e07ee8b6e",
        "server": "4784",
        "farm": 5,
        "title": "Corgi king",
        "ispublic": 1,
        "isfriend": 0,
        "isfamily": 0
      },
      {
        "id": "39914583135",
        "owner": "113454068@N06",
        "secret": "25e007537b",
        "server": "4783",
        "farm": 5,
        "title": "Sleeping Chorgi",
        "ispublic": 1,
        "isfriend": 0,
        "isfamily": 0
      }
    ]
  },
  "stat": "ok"
}